chapter05/waveforms/counter_waveforms.vcd
$date
  Fri Feb 23 06:42:02 2018
$end
$version
  GHDL v0
$end
$timescale
  1 fs
$end
$var reg 1 ! clk $end
$var reg 1 " load_en $end
$var reg 4 # data_in[3:0] $end
$var reg 4 $ result[3:0] $end
$scope module counter_dut $end
$var reg 1 % clk $end
$var reg 1 & load_en $end
$var reg 4 ' d[3:0] $end
$var reg 4 ( q[3:0] $end
$var reg 4 ) temp[3:0] $end
$upscope $end
$enddefinitions $end
#0
1!
0"
bUUUU #
b0000 $
1%
0&
bUUUU '
b0000 (
b0000 )
#10000000
0!
b0001 $
0%
b0001 (
b0001 )
#20000000
1!
1%
#30000000
0!
b0010 $
0%
b0010 (
b0010 )
#40000000
1!
1%
#50000000
0!
b0011 $
0%
b0011 (
b0011 )
#60000000
1!
1%
#70000000
0!
b0100 $
0%
b0100 (
b0100 )
#80000000
1!
1%
#90000000
0!
b0101 $
0%
b0101 (
b0101 )
#100000000
1!
1%
#110000000
0!
b0110 $
0%
b0110 (
b0110 )
#120000000
1!
1%
#130000000
0!
b0111 $
0%
b0111 (
b0111 )
#140000000
1!
1%
#150000000
0!
b1000 $
0%
b1000 (
b1000 )
#160000000
1!
1%
#170000000
0!
b1001 $
0%
b1001 (
b1001 )
#180000000
1!
1%
#190000000
0!
b1010 $
0%
b1010 (
b1010 )
#200000000
1!
1%
#210000000
0!
b1011 $
0%
b1011 (
b1011 )
#220000000
1!
1%
#230000000
0!
b1100 $
0%
b1100 (
b1100 )
#240000000
1!
1%
#250000000
0!
b1101 $
0%
b1101 (
b1101 )
#260000000
1!
1%
#270000000
0!
b1110 $
0%
b1110 (
b1110 )
#280000000
1!
1%
#290000000
0!
b1111 $
0%
b1111 (
b1111 )
#300000000
1!
1%
#310000000
0!
b0000 $
0%
b0000 (
b0000 )
#320000000
1!
1%
#330000000
0!
b0001 $
0%
b0001 (
b0001 )
#340000000
1!
1%
#350000000
0!
b0010 $
0%
b0010 (
b0010 )
#360000000
1!
1%
#370000000
0!
b0011 $
0%
b0011 (
b0011 )
#380000000
1!
1%
#390000000
0!
b0100 $
0%
b0100 (
b0100 )
#400000000
1!
1%
#410000000
0!
b0101 $
0%
b0101 (
b0101 )
#420000000
1"
b1010 #
b1010 $
1&
b1010 '
b1010 (
b1010 )
#430000000
1!
0"
1%
0&
#440000000
0!
b1011 $
0%
b1011 (
b1011 )
#450000000
1!
1%
#460000000
0!
b1100 $
0%
b1100 (
b1100 )
#470000000
1!
1%
#480000000
0!
b1101 $
0%
b1101 (
b1101 )
#490000000
1!
1%
#500000000
0!
b1110 $
0%
b1110 (
b1110 )
#510000000
1!
1%
#520000000
0!
b1111 $
0%
b1111 (
b1111 )
#530000000
1!
1%
#540000000
0!
b0000 $
0%
b0000 (
b0000 )
#550000000
1!
1%
#560000000
0!
b0001 $
0%
b0001 (
b0001 )
#570000000
1!
1%
#580000000
0!
b0010 $
0%
b0010 (
b0010 )
#590000000
1!
1%
#600000000
0!
b0011 $
0%
b0011 (
b0011 )
#610000000
1!
1%
#620000000
0!
b0100 $
0%
b0100 (
b0100 )
#630000000
1!
1%
#640000000
0!
b0101 $
0%
b0101 (
b0101 )
#650000000
1!
1%
#660000000
0!
b0110 $
0%
b0110 (
b0110 )
#670000000
1!
1%
#680000000
0!
b0111 $
0%
b0111 (
b0111 )
#690000000
1!
1%
#700000000
0!
b1000 $
0%
b1000 (
b1000 )
#710000000
1!
1%
#720000000
0!
b1001 $
0%
b1001 (
b1001 )
#730000000
1!
1%
#740000000
0!
b1010 $
0%
b1010 (
b1010 )
#750000000
1!
1%
#760000000
0!
b1011 $
0%
b1011 (
b1011 )
#770000000
1!
1%
#780000000
0!
b1100 $
0%
b1100 (
b1100 )
#790000000
1!
1%
#800000000
0!
b1101 $
0%
b1101 (
b1101 )
#810000000
1!
1%
#820000000
0!
b1110 $
0%
b1110 (
b1110 )
#830000000
1!
1%
#840000000
0!
b1111 $
0%
b1111 (
b1111 )
