chapter05/waveforms/flipflop_waveform.vcd
$date
  Mon Mar 12 15:34:02 2018
$end
$version
  GHDL v0
$end
$timescale
  1 fs
$end
$var reg 1 ! d $end
$var reg 1 " clk $end
$var reg 1 # q $end
$scope module dut $end
$var reg 1 $ d $end
$var reg 1 % clk $end
$var reg 1 & q $end
$var reg 1 ' intern $end
$upscope $end
$enddefinitions $end
#0
0!
0"
U#
0$
0%
U&
0'
#2000000
0#
0&
#5000000
#10000000
1"
1%
#12000000
#15000000
#20000000
1!
1$
1'
#22000000
#23000000
0"
0%
#25000000
1#
1&
#28000000
#33000000
1"
1%
#35000000
#38000000
#43000000
0!
0$
0'
#45000000
#46000000
0"
0%
#48000000
0#
0&
#51000000
#56000000
1!
1$
1'
#58000000
#59000000
1"
1%
#61000000
0!
1#
0$
1&
0'
#63000000
#64000000
0"
0%
#66000000
0#
0&
#69000000
#74000000
#77000000
1"
1%
#79000000
1!
1$
1'
#81000000
#82000000
0"
0%
#84000000
1#
1&
