chapter03/waveforms/async_counter_waveforms.vcd
$date
  Tue Feb 20 17:14:27 2018
$end
$version
  GHDL v0
$end
$timescale
  1 fs
$end
$var reg 1 ! clk $end
$var reg 1 " load_en $end
$var integer 32 # data_in $end
$var integer 32 $ result $end
$scope module counter_dut $end
$var reg 1 % clk $end
$var integer 32 & data_in $end
$var reg 1 ' load_en $end
$var integer 32 ( q $end
$upscope $end
$enddefinitions $end
#0
0!
0"
b0 #
b1111 $
0%
b0 &
0'
b1111 (
#20000000
1!
b1110 $
1%
b1110 (
#30000000
0!
0%
#40000000
1!
b1101 $
1%
b1101 (
#50000000
0!
0%
#60000000
1!
b1100 $
1%
b1100 (
#70000000
0!
0%
#80000000
1!
b1011 $
1%
b1011 (
#90000000
0!
0%
#100000000
1!
b1010 $
1%
b1010 (
#110000000
0!
0%
#120000000
1!
b1001 $
1%
b1001 (
#130000000
0!
0%
#140000000
1!
b1000 $
1%
b1000 (
#150000000
0!
0%
#160000000
1!
b111 $
1%
b111 (
#170000000
0!
0%
#180000000
1!
b110 $
1%
b110 (
#190000000
0!
0%
#200000000
1!
b101 $
1%
b101 (
#210000000
0!
0%
#220000000
1!
b100 $
1%
b100 (
#230000000
0!
0%
#240000000
1"
b1101 #
b1101 $
b1101 &
1'
b1101 (
#250000000
0"
0'
#255000000
1!
b1100 $
1%
b1100 (
#265000000
0!
0%
#275000000
1!
b1011 $
1%
b1011 (
#285000000
0!
0%
#295000000
1!
b1010 $
1%
b1010 (
#305000000
0!
0%
#315000000
1!
b1001 $
1%
b1001 (
#325000000
0!
0%
#335000000
1!
b1000 $
1%
b1000 (
#345000000
0!
0%
#355000000
1!
b111 $
1%
b111 (
#365000000
0!
0%
#375000000
1!
b110 $
1%
b110 (
#385000000
0!
0%
#395000000
1!
b101 $
1%
b101 (
#405000000
0!
0%
#415000000
1!
b100 $
1%
b100 (
#425000000
0!
0%
#435000000
1!
b11 $
1%
b11 (
#445000000
0!
0%
#455000000
1!
b10 $
1%
b10 (
