chapter03/waveforms/averager_waveforms.vcd
$date
  Tue Feb 20 17:41:05 2018
$end
$version
  GHDL v0
$end
$timescale
  1 fs
$end
$var reg 1 ! clk $end
$var real 64 " data_in $end
$var real 64 # data_out $end
$scope module averager_dut $end
$var reg 1 $ clk $end
$var real 64 % data_in $end
$var real 64 & data_out $end
$upscope $end
$enddefinitions $end
#0
1!
r4.0 "
r0.0 #
1$
r4.0 %
r0.0 &
#10000000
0!
0$
#20000000
1!
r9.0 "
1$
r9.0 %
#30000000
0!
0$
#40000000
1!
r1.6e1 "
1$
r1.6e1 %
#50000000
0!
0$
#60000000
1!
r2.5e1 "
1$
r2.5e1 %
#70000000
0!
0$
#80000000
1!
r3.6e1 "
1$
r3.6e1 %
#90000000
0!
0$
#100000000
1!
r4.9e1 "
1$
r4.9e1 %
#110000000
0!
0$
#120000000
1!
r6.4e1 "
1$
r6.4e1 %
#130000000
0!
0$
#140000000
1!
r8.1e1 "
1$
r8.1e1 %
#150000000
0!
0$
#160000000
1!
r1.0e2 "
1$
r1.0e2 %
#170000000
0!
0$
#180000000
1!
r1.21e2 "
1$
r1.21e2 %
#190000000
0!
0$
#200000000
1!
r1.44e2 "
1$
r1.44e2 %
#210000000
0!
0$
#220000000
1!
r1.69e2 "
1$
r1.69e2 %
#230000000
0!
0$
#240000000
1!
r1.96e2 "
1$
r1.96e2 %
#250000000
0!
0$
#260000000
1!
r2.25e2 "
1$
r2.25e2 %
#270000000
0!
0$
#280000000
1!
r2.56e2 "
1$
r2.56e2 %
#290000000
0!
0$
#300000000
1!
r2.89e2 "
r1.115e2 #
1$
r2.89e2 %
r1.115e2 &
#310000000
0!
0$
#320000000
1!
r3.24e2 "
1$
r3.24e2 %
#330000000
0!
0$
#340000000
1!
r3.61e2 "
1$
r3.61e2 %
#350000000
0!
0$
#360000000
1!
r4.0e2 "
1$
r4.0e2 %
#370000000
0!
0$
#380000000
1!
r4.41e2 "
1$
r4.41e2 %
#390000000
0!
0$
#400000000
1!
r4.84e2 "
1$
r4.84e2 %
#410000000
0!
0$
#420000000
1!
r5.29e2 "
1$
r5.29e2 %
#430000000
0!
0$
#440000000
1!
r5.76e2 "
1$
r5.76e2 %
#450000000
0!
0$
#460000000
1!
r6.25e2 "
1$
r6.25e2 %
#470000000
0!
0$
#480000000
1!
r6.76e2 "
1$
r6.76e2 %
#490000000
0!
0$
#500000000
1!
r7.29e2 "
1$
r7.29e2 %
#510000000
0!
0$
#520000000
1!
r7.84e2 "
1$
r7.84e2 %
#530000000
0!
0$
#540000000
1!
r8.41e2 "
1$
r8.41e2 %
#550000000
0!
0$
#560000000
1!
r9.0e2 "
1$
r9.0e2 %
#570000000
0!
0$
#580000000
1!
r9.61e2 "
1$
r9.61e2 %
#590000000
0!
0$
#600000000
1!
r1.024e3 "
1$
r1.024e3 %
#610000000
0!
0$
#620000000
1!
r1.089e3 "
r6.715e2 #
1$
r1.089e3 %
r6.715e2 &
