chapter03/waveforms/counter_waveforms.vcd
$date
  Sun Feb 18 19:47:45 2018
$end
$version
  GHDL v0
$end
$timescale
  1 fs
$end
$var reg 1 ! clk $end
$var integer 32 " result $end
$scope module counter_dut $end
$var reg 1 # clk $end
$var integer 32 $ q $end
$upscope $end
$enddefinitions $end
#0
1!
b1110 "
1#
b1110 $
#10000000
0!
0#
#20000000
1!
b1101 "
1#
b1101 $
#30000000
0!
0#
#40000000
1!
b1100 "
1#
b1100 $
#50000000
0!
0#
#60000000
1!
b1011 "
1#
b1011 $
#70000000
0!
0#
#80000000
1!
b1010 "
1#
b1010 $
#90000000
0!
0#
#100000000
1!
b1001 "
1#
b1001 $
#110000000
0!
0#
#120000000
1!
b1000 "
1#
b1000 $
#130000000
0!
0#
#140000000
1!
b111 "
1#
b111 $
#150000000
0!
0#
#160000000
1!
b110 "
1#
b110 $
#170000000
0!
0#
#180000000
1!
b101 "
1#
b101 $
#190000000
0!
0#
#200000000
1!
b100 "
1#
b100 $
#210000000
0!
0#
#220000000
1!
b11 "
1#
b11 $
#230000000
0!
0#
#240000000
1!
b10 "
1#
b10 $
#250000000
0!
0#
#260000000
1!
b1 "
1#
b1 $
#270000000
0!
0#
#280000000
1!
b0 "
1#
b0 $
#290000000
0!
0#
#300000000
1!
b1111 "
1#
b1111 $
#310000000
0!
0#
#320000000
1!
b1110 "
1#
b1110 $
#330000000
0!
0#
#340000000
1!
b1101 "
1#
b1101 $
#350000000
0!
0#
#360000000
1!
b1100 "
1#
b1100 $
#370000000
0!
0#
#380000000
1!
b1011 "
1#
b1011 $
#390000000
0!
0#
#400000000
1!
b1010 "
1#
b1010 $
