chapter03/waveforms/limiter_waveforms.vcd
$date
  Sun Feb 18 17:45:08 2018
$end
$version
  GHDL v0
$end
$timescale
  1 fs
$end
$var integer 32 ! data_in $end
$var integer 32 " lower $end
$var integer 32 # upper $end
$var integer 32 $ data_out $end
$var reg 1 % out_of_limits $end
$scope module limiter_dut $end
$var integer 32 & data_in $end
$var integer 32 ' lower $end
$var integer 32 ( upper $end
$var integer 32 ) data_out $end
$var reg 1 * out_of_limits $end
$upscope $end
$enddefinitions $end
#0
b110 !
b0 "
b1010 #
b110 $
0%
b110 &
b0 '
b1010 (
b110 )
0*
#10000000
b101 #
b101 $
1%
b101 (
b101 )
1*
#20000000
b11 !
b11 $
0%
b11 &
b11 )
0*
#30000000
b100 "
b1010 #
b100 $
1%
b100 '
b1010 (
b100 )
1*
#40000000
b100 !
b110 #
0%
b100 &
b110 (
0*
#50000000
b0 "
b11 #
b11 $
1%
b0 '
b11 (
b11 )
1*
#60000000
b1000 !
b111 #
b111 $
b1000 &
b111 (
b111 )
#70000000
b1001 "
b1010 #
b1001 $
b1001 '
b1010 (
b1001 )
#80000000
b1 !
b0 "
b10 #
b1 $
0%
b1 &
b0 '
b10 (
b1 )
0*
#90000000
b1 #
b1 (
