chapter01/waveforms/mux4_waveforms.vcd
$date
  Sat Feb 17 21:32:03 2018
$end
$version
  GHDL v0
$end
$timescale
  1 fs
$end
$var reg 1 ! a0 $end
$var reg 1 " a1 $end
$var reg 1 # a2 $end
$var reg 1 $ a3 $end
$var reg 1 % b0 $end
$var reg 1 & b1 $end
$var reg 1 ' b2 $end
$var reg 1 ( b3 $end
$var reg 1 ) sel $end
$var reg 1 * z0 $end
$var reg 1 + z1 $end
$var reg 1 , z2 $end
$var reg 1 - z3 $end
$scope module mux4_dut $end
$var reg 1 . a0 $end
$var reg 1 / a1 $end
$var reg 1 0 a2 $end
$var reg 1 1 a3 $end
$var reg 1 2 b0 $end
$var reg 1 3 b1 $end
$var reg 1 4 b2 $end
$var reg 1 5 b3 $end
$var reg 1 6 sel $end
$var reg 1 7 z0 $end
$var reg 1 8 z1 $end
$var reg 1 9 z2 $end
$var reg 1 : z3 $end
$scope module mux_1 $end
$var reg 1 ; a $end
$var reg 1 < b $end
$var reg 1 = sel $end
$var reg 1 > q $end
$upscope $end
$scope module mux_2 $end
$var reg 1 ? a $end
$var reg 1 @ b $end
$var reg 1 A sel $end
$var reg 1 B q $end
$upscope $end
$scope module mux_3 $end
$var reg 1 C a $end
$var reg 1 D b $end
$var reg 1 E sel $end
$var reg 1 F q $end
$upscope $end
$scope module mux_4 $end
$var reg 1 G a $end
$var reg 1 H b $end
$var reg 1 I sel $end
$var reg 1 J q $end
$upscope $end
$upscope $end
$enddefinitions $end
#0
0!
1"
0#
0$
0%
1&
1'
0(
0)
0*
1+
0,
0-
0.
1/
00
01
02
13
14
05
06
07
18
09
0:
0;
0<
0=
0>
1?
1@
0A
1B
0C
1D
0E
0F
0G
0H
0I
0J
#100000000
1!
0"
1#
1%
0'
1)
1*
1.
0/
10
12
04
16
17
1;
1<
1=
1>
0?
1A
1C
0D
1E
1I
#200000000
0!
1"
0#
1$
0&
1'
0)
0*
1-
0.
1/
00
11
03
14
06
07
1:
0;
0=
0>
1?
0@
0A
0C
1D
0E
1G
0I
1J
#300000000
1!
0$
0%
1&
0'
1(
1)
1.
01
02
13
04
15
16
1;
0<
1=
1@
1A
0D
1E
0G
1H
1I
#400000000
0!
1#
1%
1'
0)
1,
0-
0.
10
12
14
06
19
0:
0;
1<
0=
0A
1C
1D
0E
1F
0I
0J
#500000000
1$
0&
0'
0(
1)
1*
0+
0,
11
03
04
05
16
17
08
09
1=
1>
0@
1A
0B
0D
1E
0F
1G
0H
1I
#600000000
0$
0%
1&
1'
0)
0*
1+
1,
01
02
13
14
06
07
18
19
0<
0=
0>
1@
0A
1B
1D
0E
1F
0G
0I
#700000000
0"
1%
0'
1)
1*
0,
0/
12
04
16
17
09
1<
1=
1>
0?
1A
0D
1E
0F
1I
#800000000
1!
1"
0#
0%
0&
1'
1(
0)
1.
1/
00
02
03
14
15
06
1;
0<
0=
1?
0@
0A
0C
1D
0E
1H
0I
#900000000
1#
1$
1%
1&
1)
1,
1-
10
11
12
13
16
19
1:
1<
1=
1@
1A
1C
1E
1F
1G
1I
1J
