chapter01/waveforms/mux_waveforms.vcd
$date
  Sat Feb 17 20:18:32 2018
$end
$version
  GHDL v0
$end
$timescale
  1 fs
$end
$var reg 1 ! a $end
$var reg 1 " b $end
$var reg 1 # sel $end
$scope module mux_dut $end
$var reg 1 $ a $end
$var reg 1 % b $end
$var reg 1 & sel $end
$var reg 1 ' q $end
$upscope $end
$enddefinitions $end
#0
0!
0"
0#
0$
0%
0&
0'
#20000000
1#
1&
#40000000
1"
0#
1%
0&
#60000000
1#
1&
1'
#80000000
1!
0"
0#
1$
0%
0&
#100000000
1#
1&
0'
#120000000
1"
0#
1%
0&
1'
#140000000
1#
1&
