chapter04/waveforms/encoder_waveforms.vcd
$date
  Wed Feb 21 18:01:24 2018
$end
$version
  GHDL v0
$end
$timescale
  1 fs
$end
$var reg 16 ! data_in[15:0] $end
$var integer 32 " index $end
$var reg 1 # bit_set $end
$scope module encoder_dut $end
$var reg 16 $ data_in[15:0] $end
$var integer 32 % index_out $end
$var reg 1 & bit_set $end
$upscope $end
$enddefinitions $end
#0
b0000000000000001 !
b0 "
1#
b0000000000000001 $
b0 %
1&
#10000000
b0000000000001111 !
b0000000000001111 $
b0 %
1&
#20000000
b0000000000011101 !
b0000000000011101 $
b0 %
1&
#30000000
b1111000000000000 !
b1100 "
b1111000000000000 $
b1100 %
1&
#40000000
b1111111111111111 !
b0 "
b1111111111111111 $
b0 %
1&
#50000000
b1010101010101010 !
b1 "
b1010101010101010 $
b1 %
1&
#60000000
b0011110110100000 !
b101 "
b0011110110100000 $
b101 %
1&
#70000000
b0000000000000000 !
b1111 "
0#
b0000000000000000 $
b1111 %
0&
#80000000
b0000000000000100 !
b10 "
1#
b0000000000000100 $
b10 %
1&
#90000000
b0000000000000000 !
b1111 "
0#
b0000000000000000 $
b1111 %
0&
