chapter02/waveforms/counter_waveforms.vcd
$date
  Sat Feb 17 23:53:35 2018
$end
$version
  GHDL v0
$end
$timescale
  1 fs
$end
$var reg 1 ! clk $end
$var integer 32 " q $end
$scope module counter_dut $end
$var reg 1 # clk $end
$var integer 32 $ q $end
$upscope $end
$enddefinitions $end
#0
1!
b1 "
1#
b1 $
#10000000
0!
0#
#20000000
1!
b10 "
1#
b10 $
#30000000
0!
0#
#40000000
1!
b11 "
1#
b11 $
#50000000
0!
0#
#60000000
1!
b100 "
1#
b100 $
#70000000
0!
0#
#80000000
1!
b101 "
1#
b101 $
#90000000
0!
0#
#100000000
1!
b110 "
1#
b110 $
#110000000
0!
0#
#120000000
1!
b111 "
1#
b111 $
#130000000
0!
0#
#140000000
1!
b1000 "
1#
b1000 $
#150000000
0!
0#
#160000000
1!
b1001 "
1#
b1001 $
#170000000
0!
0#
#180000000
1!
b1010 "
1#
b1010 $
