chapter02/waveforms/simpleALU_waveforms.vcd
$date
  Sun Feb 18 00:36:53 2018
$end
$version
  GHDL v0
$end
$timescale
  1 fs
$end
$var integer 32 ! x $end
$var integer 32 " y $end
$var integer 32 # result $end
$var reg 1 $ f $end
$scope module simplealu_dut $end
$var integer 32 % x $end
$var integer 32 & y $end
$var reg 1 ' opcode $end
$var integer 32 ( result $end
$upscope $end
$enddefinitions $end
#0
b101 !
b1 "
b110 #
0$
b101 %
b1 &
0'
b110 (
#5000000
b110 !
b101 #
1$
b110 %
1'
b101 (
#10000000
b111 !
b10 "
b1001 #
0$
b111 %
b10 &
0'
b1001 (
#15000000
b1000 !
b110 #
1$
b1000 %
1'
b110 (
#20000000
b1001 !
b11 "
b1100 #
0$
b1001 %
b11 &
0'
b1100 (
#25000000
b1 !
b11111111111111111111111111111110 #
1$
b1 %
1'
b11111111111111111111111111111110 (
#30000000
b10 !
b100 "
b110 #
0$
b10 %
b100 &
0'
b110 (
#35000000
b11 !
b11111111111111111111111111111111 #
1$
b11 %
1'
b11111111111111111111111111111111 (
#40000000
b100 !
b101 "
b1001 #
0$
b100 %
b101 &
0'
b1001 (
#45000000
b101 !
b0 #
1$
b101 %
1'
b0 (
#50000000
b110 !
b110 "
b1100 #
0$
b110 %
b110 &
0'
b1100 (
#55000000
b111 !
b1 #
1$
b111 %
1'
b1 (
#60000000
b1000 !
b111 "
b1111 #
0$
b1000 %
b111 &
0'
b1111 (
#65000000
b1001 !
b10 #
1$
b1001 %
1'
b10 (
#70000000
b0 !
b1000 "
b1000 #
0$
b0 %
b1000 &
0'
b1000 (
#75000000
b1 !
b11111111111111111111111111111001 #
1$
b1 %
1'
b11111111111111111111111111111001 (
#80000000
b10 !
b1001 "
b1011 #
0$
b10 %
b1001 &
0'
b1011 (
#85000000
b11 !
b11111111111111111111111111111010 #
1$
b11 %
1'
b11111111111111111111111111111010 (
#90000000
b100 !
b0 "
b100 #
0$
b100 %
b0 &
0'
b100 (
#95000000
b101 !
b101 #
1$
b101 %
1'
b101 (
